/* Memory layout for GD32VF103CB (Longan Nano) */

MEMORY
{
    FLASH       : ORIGIN = 0x08000000, LENGTH = 128K
    RAM         : ORIGIN = 0x20000000, LENGTH = 32K
}

REGION_ALIAS("REGION_TEXT", FLASH);
REGION_ALIAS("REGION_RODATA", FLASH);
REGION_ALIAS("REGION_DATA", RAM);
REGION_ALIAS("REGION_BSS", RAM);
REGION_ALIAS("REGION_HEAP", RAM);
REGION_ALIAS("REGION_STACK", RAM);
